…
    ## Rows: 32906 Columns: 4
    ## ── Column specification ────────────────────────────────────────────────────────
    ## Delimiter: ","
    ## chr  (1): application_number
    ## dbl  (2): ego_examiner_id, alter_examiner_id
    ## date (1): advice_date
    ## 
    ## ℹ Use `spec()` to retrieve the full column specification for this data.
    ## ℹ Specify the column types or set `show_col_types = FALSE` to quiet this message.

``` r
applications
```

    ## # A tibble: 2,018,477 × 16
    ##    applicat…¹ filing_d…² exami…³ exami…⁴ exami…⁵ exami…⁶ exami…⁷ uspc_…⁸ uspc_…⁹
    ##    <chr>      <date>     <chr>   <chr>   <chr>     <dbl>   <dbl> <chr>   <chr>  
    ##  1 08284457   2000-01-26 HOWARD  JACQUE… V         96082    1764 508     273000 
    ##  2 08413193   2000-10-11 YILDIR… BEKIR   L         87678    1764 208     179000 
    ##  3 08531853   2000-05-17 HAMILT… CYNTHIA <NA>      63213    1752 430     271100 
    ##  4 08637752   2001-07-20 MOSHER  MARY    <NA>      73788    1648 530     388300 
    ##  5 08682726   2000-04-10 BARR    MICHAEL E         77294    1762 427     430100 
    ##  6 08687412   2000-04-28 GRAY    LINDA   LAMEY     68606    1734 156     204000 
    ##  7 08716371   2004-01-26 MCMILL… KARA    RENITA    89557    1627 424     401000 
    ##  8 08765941   2000-06-23 FORD    VANESSA L         97543    1645 424     001210 
    ##  9 08776818   2000-02-04 STRZEL… TERESA  E         98714    1637 435     006000 
    ## 10 08809677   2002-02-20 KIM     SUN     U         65530    1723 210     645000 
    ## # … with 2,018,467 more rows, 7 more variables: patent_number <chr>,
    ## #   patent_issue_date <date>, abandon_date <date>, disposal_type <chr>,
    ## #   appl_status_code <dbl>, appl_status_date <chr>, tc <dbl>, and abbreviated
    ## #   variable names ¹​application_number, ²​filing_date, ³​examiner_name_last,
    ## #   ⁴​examiner_name_first, ⁵​examiner_name_middle, ⁶​examiner_id,
    ## #   ⁷​examiner_art_unit, ⁸​uspc_class, ⁹​uspc_subclass

``` r
edges
```

    ## # A tibble: 32,906 × 4
    ##    application_number advice_date ego_examiner_id alter_examiner_id
    ##    <chr>              <date>                <dbl>             <dbl>
    ##  1 09402488           2008-11-17            84356             66266
    ##  2 09402488           2008-11-17            84356             63519
    ##  3 09402488           2008-11-17            84356             98531
    ##  4 09445135           2008-08-21            92953             71313
    ##  5 09445135           2008-08-21            92953             93865
    ##  6 09445135           2008-08-21            92953             91818
    ##  7 09479304           2008-12-15            61767             69277
    ##  8 09479304           2008-12-15            61767             92446
    ##  9 09479304           2008-12-15            61767             66805
    ## 10 09479304           2008-12-15            61767             70919
    ## # … with 32,896 more rows
## Get gender for examiners

``` r
library(gender)
```

    ## Warning: package 'gender' was built under R version 4.2.3

``` r
examiner_names <- applications %>% 
  distinct(examiner_name_first)
examiner_names
```

    ## # A tibble: 2,595 × 1
    ##    examiner_name_first
    ##    <chr>              
    ##  1 JACQUELINE         
    ##  2 BEKIR              
    ##  3 CYNTHIA            
    ##  4 MARY               
    ##  5 MICHAEL            
    ##  6 LINDA              
    ##  7 KARA               
    ##  8 VANESSA            
    ##  9 TERESA             
    ## 10 SUN                
    ## # … with 2,585 more rows
## Get a table of names and gender

``` r
examiner_names_gender <- examiner_names %>% 
  do(results = gender(.$examiner_name_first, method = "ssa")) %>% 
  unnest(cols = c(results), keep_empty = TRUE) %>% 
  select(
    examiner_name_first = name,
    gender,
    proportion_female
  )
examiner_names_gender
```

    ## # A tibble: 1,822 × 3
    ##    examiner_name_first gender proportion_female
    ##    <chr>               <chr>              <dbl>
    ##  1 AARON               male              0.0082
    ##  2 ABDEL               male              0     
    ##  3 ABDOU               male              0     
    ##  4 ABDUL               male              0     
    ##  5 ABDULHAKIM          male              0     
    ##  6 ABDULLAH            male              0     
    ##  7 ABDULLAHI           male              0     
    ##  8 ABIGAIL             female            0.998 
    ##  9 ABIMBOLA            female            0.944 
    ## 10 ABRAHAM             male              0.0031
    ## # … with 1,812 more rows
…
``` r
library(wru)
```

    ## Warning: package 'wru' was built under R version 4.2.3

``` r
examiner_surnames <- applications %>% 
  select(surname = examiner_name_last) %>% 
  distinct()
examiner_surnames
```

    ## # A tibble: 3,806 × 1
    ##    surname   
    ##    <chr>     
    ##  1 HOWARD    
    ##  2 YILDIRIM  
    ##  3 HAMILTON  
    ##  4 MOSHER    
    ##  5 BARR      
    ##  6 GRAY      
    ##  7 MCMILLIAN 
    ##  8 FORD      
    ##  9 STRZELECKA
    ## 10 KIM       
    ## # … with 3,796 more rows
…
    ## Rows: 3806 Columns: 6
    ## ── Column specification ────────────────────────────────────────────────────────
    ## Delimiter: ","
    ## chr (1): surname
    ## dbl (5): pred.whi, pred.bla, pred.his, pred.asi, pred.oth
    ## 
    ## ℹ Use `spec()` to retrieve the full column specification for this data.
    ## ℹ Specify the column types or set `show_col_types = FALSE` to quiet this message.

``` r
examiner_race
```

    ## # A tibble: 3,806 × 6
    ##    surname    pred.whi pred.bla pred.his pred.asi pred.oth
    ##    <chr>         <dbl>    <dbl>    <dbl>    <dbl>    <dbl>
    ##  1 HOWARD       0.597   0.295    0.0275   0.00690   0.0741
    ##  2 YILDIRIM     0.807   0.0273   0.0694   0.0165    0.0798
    ##  3 HAMILTON     0.656   0.239    0.0286   0.00750   0.0692
    ##  4 MOSHER       0.915   0.00425  0.0291   0.00917   0.0427
    ##  5 BARR         0.784   0.120    0.0268   0.00830   0.0615
    ##  6 GRAY         0.640   0.252    0.0281   0.00748   0.0724
    ##  7 MCMILLIAN    0.322   0.554    0.0212   0.00340   0.0995
    ##  8 FORD         0.576   0.320    0.0275   0.00621   0.0697
    ##  9 STRZELECKA   0.472   0.171    0.220    0.0825    0.0543
    ## 10 KIM          0.0169  0.00282  0.00546  0.943     0.0319
    ## # … with 3,796 more rows
``` r
examiner_race <- examiner_race %>% 
  mutate(max_race_p = pmax(pred.asi, pred.bla, pred.his, pred.oth, pred.whi)) %>% 
  mutate(race = case_when(
    max_race_p == pred.asi ~ "Asian",
    max_race_p == pred.bla ~ "black",
    max_race_p == pred.his ~ "Hispanic",
    max_race_p == pred.oth ~ "other",
    max_race_p == pred.whi ~ "white",
    TRUE ~ NA_character_
  ))
examiner_race
```

    ## # A tibble: 3,806 × 8
    ##    surname    pred.whi pred.bla pred.his pred.asi pred.oth max_race_p race 
    ##    <chr>         <dbl>    <dbl>    <dbl>    <dbl>    <dbl>      <dbl> <chr>
    ##  1 HOWARD       0.597   0.295    0.0275   0.00690   0.0741      0.597 white
    ##  2 YILDIRIM     0.807   0.0273   0.0694   0.0165    0.0798      0.807 white
    ##  3 HAMILTON     0.656   0.239    0.0286   0.00750   0.0692      0.656 white
    ##  4 MOSHER       0.915   0.00425  0.0291   0.00917   0.0427      0.915 white
    ##  5 BARR         0.784   0.120    0.0268   0.00830   0.0615      0.784 white
    ##  6 GRAY         0.640   0.252    0.0281   0.00748   0.0724      0.640 white
    ##  7 MCMILLIAN    0.322   0.554    0.0212   0.00340   0.0995      0.554 black
    ##  8 FORD         0.576   0.320    0.0275   0.00621   0.0697      0.576 white
    ##  9 STRZELECKA   0.472   0.171    0.220    0.0825    0.0543      0.472 white
    ## 10 KIM          0.0169  0.00282  0.00546  0.943     0.0319      0.943 Asian
    ## # … with 3,796 more rows
…
    ##            used  (Mb) gc trigger  (Mb) max used  (Mb)
    ## Ncells  4647371 248.2    7917250 422.9  6029129 322.0
    ## Vcells 51799277 395.2   95674953 730.0 94679856 722.4

## Add Tenure

``` r
library(lubridate) # to work with dates
examiner_dates <- applications %>% 
  select(examiner_id, filing_date, appl_status_date) 
examiner_dates
```

    ## # A tibble: 2,018,477 × 3
    ##    examiner_id filing_date appl_status_date  
    ##          <dbl> <date>      <chr>             
    ##  1       96082 2000-01-26  30jan2003 00:00:00
    ##  2       87678 2000-10-11  27sep2010 00:00:00
    ##  3       63213 2000-05-17  30mar2009 00:00:00
    ##  4       73788 2001-07-20  07sep2009 00:00:00
    ##  5       77294 2000-04-10  19apr2001 00:00:00
    ##  6       68606 2000-04-28  16jul2001 00:00:00
    ##  7       89557 2004-01-26  15may2017 00:00:00
    ##  8       97543 2000-06-23  03apr2002 00:00:00
    ##  9       98714 2000-02-04  27nov2002 00:00:00
    ## 10       65530 2002-02-20  23mar2009 00:00:00
    ## # … with 2,018,467 more rows
…
``` r
examiner_dates <- examiner_dates %>% 
  group_by(examiner_id) %>% 
  summarise(
    earliest_date = min(start_date, na.rm = TRUE), 
    latest_date = max(end_date, na.rm = TRUE),
    tenure_days = interval(earliest_date, latest_date) %/% days(1)
    ) %>% 
  filter(year(latest_date)<2018)
examiner_dates
```

    ## # A tibble: 5,625 × 4
    ##    examiner_id earliest_date latest_date tenure_days
    ##          <dbl> <date>        <date>            <dbl>
    ##  1       59012 2004-07-28    2015-07-24         4013
    ##  2       59025 2009-10-26    2017-05-18         2761
    ##  3       59030 2005-12-12    2017-05-22         4179
    ##  4       59040 2007-09-11    2017-05-23         3542
    ##  5       59052 2001-08-21    2007-02-28         2017
    ##  6       59054 2000-11-10    2016-12-23         5887
    ##  7       59055 2004-11-02    2007-12-26         1149
    ##  8       59056 2000-03-24    2017-05-22         6268
    ##  9       59074 2000-01-31    2017-03-17         6255
    ## 10       59081 2011-04-21    2017-05-19         2220
    ## # … with 5,615 more rows
…
