…
    ## Total count of Contacts:  587

# Count of Contacts by Employer

``` r
#Count number of employer and total count
company_counts <- my_network %>%
  group_by(Company) %>%
  summarize(total_count = n())%>%
  arrange(desc(total_count))
company_counts
```

    ## # A tibble: 468 × 2
    ##    Company                                             total_count
    ##    <chr>                                                     <int>
    ##  1 Deloitte                                                     12
    ##  2 McGill University - Desautels Faculty of Management          11
    ##  3 McGill University                                             9
    ##  4 BDC                                                           8
    ##  5 TD                                                            6
    ##  6 EY                                                            5
    ##  7 BRP                                                           4
    ##  8 CAE                                                           4
    ##  9 Caisse de dépôt et placement du Québec (CDPQ)                 4
    ## 10 KPI Digital Solutions                                         4
    ## # … with 458 more rows
…
